…
#Calculates median wind speed of data by airport and direction for use in table and plot
median_wind_speed <- weather %>%
  group_by(origin, wind_dir) %>%
  select(origin, wind_dir, wind_speed) %>%
  #Filters out large outlier in wind speed as well as data for which there is no wind direction specified
  filter(wind_speed < 50, wind_dir != "NA", wind_dir != "0") %>%
  summarise(Median.Wind.Speed = median(wind_speed, na.rm = TRUE)) %>%
  rename(Wind.Direction = wind_dir, Origin = origin)

#Prints an unformatted table of data that can be seen in most file types
print(median_wind_speed)
```

```
## Source: local data frame [108 x 3]
## Groups: Origin [3]
## 
##    Origin Wind.Direction Median.Wind.Speed
##     <chr>          <dbl>             <dbl>
## 1     EWR             10           9.20624
## 2     EWR             20           9.20624
## 3     EWR             30           9.20624
## 4     EWR             40          10.35702
## 5     EWR             50           8.05546
## 6     EWR             60           8.05546
## 7     EWR             70           6.90468
## 8     EWR             80           6.90468
## 9     EWR             90           6.32929
## 10    EWR            100           6.90468
## # ... with 98 more rows
```
…
